<define-tag pagetitle>DLA-919-1 weechat</define-tag>
<define-tag report_date>2017-4-26</define-tag>
<define-tag secrefs>CVE-2017-8073 Bug#861121</define-tag>
<define-tag packages>weechat</define-tag>
<define-tag isvulnerable>yes</define-tag>
<define-tag fixed>yes</define-tag>
<define-tag fixed-section>no</define-tag>

#use wml::debian::security

