<define-tag pagetitle>DLA-843-1 bind9</define-tag>
<define-tag report_date>2017-2-28</define-tag>
<define-tag secrefs>CVE-2017-3135</define-tag>
<define-tag packages>bind9</define-tag>
<define-tag isvulnerable>yes</define-tag>
<define-tag fixed>yes</define-tag>
<define-tag fixed-section>no</define-tag>

#use wml::debian::security

