<define-tag pagetitle>DLA-908-1 chicken</define-tag>
<define-tag report_date>2017-4-23</define-tag>
<define-tag secrefs>CVE-2017-6949 Bug#858057</define-tag>
<define-tag packages>chicken</define-tag>
<define-tag isvulnerable>yes</define-tag>
<define-tag fixed>yes</define-tag>
<define-tag fixed-section>no</define-tag>

#use wml::debian::security

