<define-tag pagetitle>DLA-1112-1 rubygems</define-tag>
<define-tag report_date>2017-9-27</define-tag>
<define-tag secrefs>CVE-2017-0900 CVE-2017-0901 Bug#873802</define-tag>
<define-tag packages>rubygems</define-tag>
<define-tag isvulnerable>yes</define-tag>
<define-tag fixed>yes</define-tag>
<define-tag fixed-section>no</define-tag>

#use wml::debian::security

