<define-tag pagetitle>DLA-1178-1 opensaml2</define-tag>
<define-tag report_date>2017-11-18</define-tag>
<define-tag secrefs>CVE-2017-16853 Bug#881856</define-tag>
<define-tag packages>opensaml2</define-tag>
<define-tag isvulnerable>yes</define-tag>
<define-tag fixed>yes</define-tag>
<define-tag fixed-section>no</define-tag>

#use wml::debian::security

