<define-tag pagetitle>DLA-1310-1 exempi</define-tag>
<define-tag report_date>2018-3-21</define-tag>
<define-tag secrefs>CVE-2017-18233 CVE-2017-18234 CVE-2017-18236 CVE-2017-18238 CVE-2018-7728 CVE-2018-7730</define-tag>
<define-tag packages>exempi</define-tag>
<define-tag isvulnerable>yes</define-tag>
<define-tag fixed>yes</define-tag>
<define-tag fixed-section>no</define-tag>

#use wml::debian::security

