<define-tag pagetitle>DLA-1421-1 ruby2.1</define-tag>
<define-tag report_date>2018-7-14</define-tag>
<define-tag secrefs>CVE-2015-9096 CVE-2016-2339 CVE-2016-7798 CVE-2017-0898 CVE-2017-0899 CVE-2017-0900 CVE-2017-0901 CVE-2017-0902 CVE-2017-0903 CVE-2017-10784 CVE-2017-14033 CVE-2017-14064 CVE-2017-17405 CVE-2017-17742 CVE-2017-17790 CVE-2018-6914 CVE-2018-8777 CVE-2018-8778 CVE-2018-8779 CVE-2018-8780 CVE-2018-1000075 CVE-2018-1000076 CVE-2018-1000077 CVE-2018-1000078 CVE-2018-1000079 Bug#851161</define-tag>
<define-tag packages>ruby2.1</define-tag>
<define-tag isvulnerable>yes</define-tag>
<define-tag fixed>yes</define-tag>
<define-tag fixed-section>no</define-tag>

#use wml::debian::security

