<define-tag pagetitle>DLA-1357-1 gunicorn</define-tag>
<define-tag report_date>2018-4-22</define-tag>
<define-tag secrefs>CVE-2018-1000164 Bug##896548</define-tag>
<define-tag packages>gunicorn</define-tag>
<define-tag isvulnerable>yes</define-tag>
<define-tag fixed>yes</define-tag>
<define-tag fixed-section>no</define-tag>

#use wml::debian::security

