<define-tag pagetitle>DLA-596-1 extplorer</define-tag>
<define-tag report_date>2016-8-15</define-tag>
<define-tag secrefs>CVE-2016-4313</define-tag>
<define-tag packages>extplorer</define-tag>
<define-tag isvulnerable>yes</define-tag>
<define-tag fixed>yes</define-tag>
<define-tag fixed-section>no</define-tag>

#use wml::debian::security

