<define-tag pagetitle>DLA-574-1 qemu-kvm</define-tag>
<define-tag report_date>2016-7-30</define-tag>
<define-tag secrefs>CVE-2015-5239 CVE-2016-2857 CVE-2016-4020 CVE-2016-4439 CVE-2016-5403 CVE-2016-6351</define-tag>
<define-tag packages>qemu-kvm</define-tag>
<define-tag isvulnerable>yes</define-tag>
<define-tag fixed>yes</define-tag>
<define-tag fixed-section>no</define-tag>

#use wml::debian::security

